// Jest Snapshot v1, https://goo.gl/fbAQLP

exports[`<Model /> renders correctly 1`] = `
.c0 {
  -webkit-align-items: center;
  -webkit-box-align: center;
  -ms-flex-align: center;
  align-items: center;
  background-color: black;
  background-image: url(https://www.mazda.com.au/globalassets/vehicle-landing-pages/mx-5/videos-and-back-ups/mx-5_hero_video-fallback.jpg);
  background-position: center center;
  background-size: cover;
  box-sizing: border-box;
  display: -webkit-box;
  display: -webkit-flex;
  display: -ms-flexbox;
  display: flex;
  height: calc(100vh - 105px);
  min-height: 500px;
  overflow: hidden;
  position: relative;
  width: 100%;
  z-index: 0;
}

.c0 h1 {
  background: black;
  color: white;
  display: inline-block;
  padding: 8px 24px;
  position: absolute;
  right: 0;
  top: 40px;
}

.c2 {
  float: left;
  margin: 0 20px 0 0;
}

.c3 {
  float: left;
}

.c1 {
  background-color: rgba(255,255,255,0.7);
  border: 5px solid #e40000;
  border-radius: 10px;
  overflow: hidden;
  padding: 16px 24px;
}

<div
  className="c0"
>
  <a
    href="/make/model/520"
    onClick={[Function]}
  >
    <h1>
      MX-5
    </h1>
  </a>
  <div
    style={
      Object {
        "boxSizing": "border-box",
        "marginLeft": "auto",
        "marginRight": "auto",
        "maxWidth": "960px",
        "paddingLeft": "15px",
        "paddingRight": "15px",
        "position": "relative",
      }
    }
  >
    <div
      style={
        Object {
          "alignItems": "normal",
          "display": "flex",
          "flexGrow": 0,
          "flexShrink": 0,
          "flexWrap": "wrap",
          "marginLeft": "-15px",
          "marginRight": "-15px",
        }
      }
    >
      <div
        style={
          Object {
            "boxSizing": "border-box",
            "flexBasis": 0,
            "flexGrow": 1,
            "flexShrink": 0,
            "left": "auto",
            "marginLeft": "0%",
            "maxWidth": "100%",
            "minHeight": "1px",
            "overflow": "hidden",
            "paddingLeft": "15px",
            "paddingRight": "15px",
            "position": "relative",
            "right": "auto",
            "width": "100%",
          }
        }
      >
        <div
          className="c1"
        >
          <figure
            className="c2"
          >
            <img
              alt="MX-5"
              src="https://www.mazda.com.au/globalassets/vehicle-landing-pages/mx-5/videos-and-back-ups/mx-5_hero_video-fallback.jpg"
              width="150"
            />
          </figure>
          <figcaption
            className="c3"
          >
            <p>
              <strong>
                id:
              </strong>
               
              520
            </p>
            <p>
              <strong>
                makeId:
              </strong>
               
              50
            </p>
            <p>
              <strong>
                name:
              </strong>
               
              MX-5
            </p>
            <p>
              <strong>
                price:
              </strong>
               $
              90,000.00
            </p>
          </figcaption>
        </div>
      </div>
      <div
        style={
          Object {
            "clear": "both",
            "display": "table",
          }
        }
      >
        <span
          style={
            Object {
              "display": "none",
            }
          }
        >
           
        </span>
      </div>
    </div>
    <span
      style={
        Object {
          "clear": "both",
          "display": "table",
        }
      }
    />
  </div>
</div>
`;
