// Jest Snapshot v1, https://goo.gl/fbAQLP

exports[`<Footer /> renders correctly 1`] = `
.c0 {
  background: #333;
  color: white;
  padding: 16px 24px;
  width: 100%;
}

.c0 img {
  width: 117px;
}

<footer
  className="c0"
  role="contentinfo"
>
  <div
    style={
      Object {
        "boxSizing": "border-box",
        "marginLeft": "auto",
        "marginRight": "auto",
        "maxWidth": "960px",
        "paddingLeft": "15px",
        "paddingRight": "15px",
        "position": "relative",
      }
    }
  >
    <div
      style={
        Object {
          "alignItems": "normal",
          "display": "flex",
          "flexGrow": 0,
          "flexShrink": 0,
          "flexWrap": "wrap",
          "marginLeft": "-15px",
          "marginRight": "-15px",
        }
      }
    >
      <div
        style={
          Object {
            "boxSizing": "border-box",
            "flexBasis": 0,
            "flexGrow": 1,
            "flexShrink": 0,
            "left": "auto",
            "marginLeft": "0%",
            "maxWidth": "100%",
            "minHeight": "1px",
            "overflow": "hidden",
            "paddingLeft": "15px",
            "paddingRight": "15px",
            "position": "relative",
            "right": "auto",
            "width": "100%",
          }
        }
      >
        <img
          alt="Qantas"
          src="/static/logos/logo-qantas-new.png"
        />
      </div>
      <div
        style={
          Object {
            "clear": "both",
            "display": "table",
          }
        }
      >
        <span
          style={
            Object {
              "display": "none",
            }
          }
        >
           
        </span>
      </div>
    </div>
    <span
      style={
        Object {
          "clear": "both",
          "display": "table",
        }
      }
    />
  </div>
</footer>
`;
